[
{
    "arguments": [
        "clang",
        "-Wno-documentation-unknown-command",
        "-Wno-unknown-warning-option",
        "-Wno-unknown-pragmas",
        "-nostdinc",
        "-nostdinc++",
        "-g",
        "-Wall",
        "-Wextra",
        "-Wextra",
        "-fexceptions",
        "-mthreads",
        "-fsyntax-only",
        "-m64",
        "--target=x86_64-w64-mingw32",
        "-std=gnu++17",
        "-DUNICODE",
        "-D_UNICODE",
        "-DWIN32",
        "-DMINGW_HAS_SECURE_API",
        "-DQT_QML_DEBUG",
        "-DQT_QUICK_LIB",
        "-DQT_OPENGL_LIB",
        "-DQT_GUI_LIB",
        "-DQT_QMLMODELS_LIB",
        "-DQT_QML_LIB",
        "-DQT_QMLINTEGRATION_LIB",
        "-DQT_NETWORK_LIB",
        "-DQT_CORE_LIB",
        "-DQT_NEEDS_QMAIN",
        "-DQ_CREATOR_RUN",
        "-I",
        "C:\\Qt\\Tools\\QtCreator\\share\\qtcreator\\cplusplus\\wrappedMingwHeaders",
        "-I",
        "C:\\Qt\\Tools\\QtCreator\\share\\qtcreator\\cplusplus\\wrappedQtHeaders",
        "-I",
        "C:\\Qt\\Tools\\QtCreator\\share\\qtcreator\\cplusplus\\wrappedQtHeaders\\QtCore",
        "-I",
        "C:\\Users\\mailo\\OneDrive\\Dokumenter\\Christoffer\\Arbejde\\Qt\\QML_Kahoot\\QML_Kahoot",
        "-I",
        "C:\\Qt\\6.3.2\\mingw_64\\include",
        "-I",
        "C:\\Qt\\6.3.2\\mingw_64\\include\\QtQuick",
        "-I",
        "C:\\Qt\\6.3.2\\mingw_64\\include\\QtOpenGL",
        "-I",
        "C:\\Qt\\6.3.2\\mingw_64\\include\\QtGui",
        "-I",
        "C:\\Qt\\6.3.2\\mingw_64\\include\\QtQmlModels",
        "-I",
        "C:\\Qt\\6.3.2\\mingw_64\\include\\QtQml",
        "-I",
        "C:\\Qt\\6.3.2\\mingw_64\\include\\QtQmlIntegration",
        "-I",
        "C:\\Qt\\6.3.2\\mingw_64\\include\\QtNetwork",
        "-I",
        "C:\\Qt\\6.3.2\\mingw_64\\include\\QtCore",
        "-I",
        "C:\\Users\\mailo\\OneDrive\\Dokumenter\\Christoffer\\Arbejde\\Qt\\QML_Kahoot\\build-QML_Kahoot-Desktop_Qt_6_3_2_MinGW_64_bit-Debug\\debug",
        "-I",
        "C:\\Users\\mailo\\OneDrive\\Dokumenter\\Christoffer\\Arbejde\\Qt\\QML_Kahoot\\build-QML_Kahoot-Desktop_Qt_6_3_2_MinGW_64_bit-Debug",
        "-I",
        "C:\\Qt\\6.3.2\\mingw_64\\mkspecs\\win32-g++",
        "-isystem",
        "C:\\Qt\\Tools\\mingw1120_64\\lib\\gcc\\x86_64-w64-mingw32\\11.2.0\\include\\c++",
        "-isystem",
        "C:\\Qt\\Tools\\mingw1120_64\\lib\\gcc\\x86_64-w64-mingw32\\11.2.0\\include\\c++\\x86_64-w64-mingw32",
        "-isystem",
        "C:\\Qt\\Tools\\mingw1120_64\\lib\\gcc\\x86_64-w64-mingw32\\11.2.0\\include\\c++\\backward",
        "-isystem",
        "C:\\Qt\\Tools\\QtCreator\\bin\\clang\\lib\\clang\\14.0.3\\include",
        "-isystem",
        "C:\\Qt\\Tools\\mingw1120_64\\x86_64-w64-mingw32\\include",
        "-fmessage-length=0",
        "-fdiagnostics-show-note-include-stack",
        "-fretain-comments-from-system-headers",
        "-fmacro-backtrace-limit=0",
        "-ferror-limit=1000",
        "-x",
        "c++",
        "C:\\Users\\mailo\\OneDrive\\Dokumenter\\Christoffer\\Arbejde\\Qt\\QML_Kahoot\\QML_Kahoot\\main.cpp"
    ],
    "directory": "C:/Users/mailo/OneDrive/Dokumenter/Christoffer/Arbejde/Qt/QML_Kahoot/build-QML_Kahoot-Desktop_Qt_6_3_2_MinGW_64_bit-Debug/.qtc_clangd",
    "file": "C:/Users/mailo/OneDrive/Dokumenter/Christoffer/Arbejde/Qt/QML_Kahoot/QML_Kahoot/main.cpp"
}
]